dort:jewnig@85.202.203.129:1080
dort:jewnig@85.202.203.129:1080
dort:jewnig@85.202.203.129:1080
dort:jewnig@85.202.203.129:1080
dort:jewnig@85.202.203.129:1080
dort:jewnig@85.202.203.129:1080
dort:jewnig@85.202.203.129:1080
dort:jewnig@85.202.203.129:1080
dort:jewnig@85.202.203.129:1080
dort:jewnig@85.202.203.129:1080
dort:jewnig@85.202.203.129:1080
dort:jewnig@85.202.203.129:1080
dort:jewnig@85.202.203.129:1080
dort:jewnig@85.202.203.129:1080
dort:jewnig@85.202.203.129:1080
dort:jewnig@85.202.203.129:1080
dort:jewnig@85.202.203.129:1080
dort:jewnig@85.202.203.129:1080
dort:jewnig@85.202.203.129:1080
dort:jewnig@85.202.203.129:1080
dort:jewnig@85.202.203.129:1080
dort:jewnig@85.202.203.129:1080
dort:jewnig@85.202.203.129:1080
dort:jewnig@85.202.203.129:1080
dort:jewnig@85.202.203.129:1080
dort:jewnig@85.202.203.129:1080
dort:jewnig@85.202.203.129:1080
dort:jewnig@85.202.203.129:1080
dort:jewnig@85.202.203.129:1080
dort:jewnig@85.202.203.129:1080
dort:jewnig@85.202.203.129:1080
dort:jewnig@85.202.203.129:1080
dort:jewnig@85.202.203.129:1080
dort:jewnig@85.202.203.129:1080
dort:jewnig@85.202.203.129:1080
dort:jewnig@85.202.203.129:1080
dort:jewnig@85.202.203.129:1080
dort:jewnig@85.202.203.129:1080
dort:jewnig@85.202.203.129:1080
dort:jewnig@85.202.203.129:1080
dort:jewnig@85.202.203.129:1080
dort:jewnig@85.202.203.129:1080
dort:jewnig@85.202.203.129:1080
dort:jewnig@85.202.203.129:1080
dort:jewnig@85.202.203.129:1080
dort:jewnig@85.202.203.129:1080
dort:jewnig@85.202.203.129:1080
dort:jewnig@85.202.203.129:1080
dort:jewnig@85.202.203.129:1080
dort:jewnig@85.202.203.129:1080
dort:jewnig@85.202.203.129:1080
dort:jewnig@85.202.203.129:1080
dort:jewnig@85.202.203.129:1080
dort:jewnig@85.202.203.129:1080
dort:jewnig@85.202.203.129:1080
dort:jewnig@85.202.203.129:1080
dort:jewnig@85.202.203.129:1080
dort:jewnig@85.202.203.129:1080
dort:jewnig@85.202.203.129:1080
dort:jewnig@85.202.203.129:1080
dort:jewnig@85.202.203.129:1080
dort:jewnig@85.202.203.129:1080
dort:jewnig@85.202.203.129:1080
dort:jewnig@85.202.203.129:1080
dort:jewnig@85.202.203.129:1080
dort:jewnig@85.202.203.129:1080
dort:jewnig@85.202.203.129:1080
dort:jewnig@85.202.203.129:1080
dort:jewnig@85.202.203.129:1080
dort:jewnig@85.202.203.129:1080
dort:jewnig@85.202.203.129:1080
dort:jewnig@85.202.203.129:1080
dort:jewnig@85.202.203.129:1080
dort:jewnig@85.202.203.129:1080
dort:jewnig@85.202.203.129:1080
dort:jewnig@85.202.203.129:1080
dort:jewnig@85.202.203.129:1080
dort:jewnig@85.202.203.129:1080
dort:jewnig@85.202.203.129:1080
dort:jewnig@85.202.203.129:1080
dort:jewnig@85.202.203.129:1080
dort:jewnig@85.202.203.129:1080
dort:jewnig@85.202.203.129:1080
dort:jewnig@85.202.203.129:1080
dort:jewnig@85.202.203.129:1080
dort:jewnig@85.202.203.129:1080
dort:jewnig@85.202.203.129:1080
dort:jewnig@85.202.203.129:1080
dort:jewnig@85.202.203.129:1080
dort:jewnig@85.202.203.129:1080
dort:jewnig@85.202.203.129:1080
dort:jewnig@85.202.203.129:1080
dort:jewnig@85.202.203.129:1080
dort:jewnig@85.202.203.129:1080
dort:jewnig@85.202.203.129:1080
dort:jewnig@85.202.203.129:1080
dort:jewnig@85.202.203.129:1080
dort:jewnig@85.202.203.129:1080
dort:jewnig@85.202.203.129:1080
dort:jewnig@85.202.203.129:1080
dort:jewnig@85.202.203.129:1080
dort:jewnig@85.202.203.129:1080
dort:jewnig@85.202.203.129:1080
dort:jewnig@85.202.203.129:1080
dort:jewnig@85.202.203.129:1080
dort:jewnig@85.202.203.129:1080
dort:jewnig@85.202.203.129:1080
dort:jewnig@85.202.203.129:1080
dort:jewnig@85.202.203.129:1080
dort:jewnig@85.202.203.129:1080
dort:jewnig@85.202.203.129:1080
dort:jewnig@85.202.203.129:1080
dort:jewnig@85.202.203.129:1080
dort:jewnig@85.202.203.129:1080
dort:jewnig@85.202.203.129:1080
dort:jewnig@85.202.203.129:1080
dort:jewnig@85.202.203.129:1080
dort:jewnig@85.202.203.129:1080
dort:jewnig@85.202.203.129:1080
dort:jewnig@85.202.203.129:1080
dort:jewnig@85.202.203.129:1080
dort:jewnig@85.202.203.129:1080
dort:jewnig@85.202.203.129:1080
dort:jewnig@85.202.203.129:1080
dort:jewnig@85.202.203.129:1080
dort:jewnig@85.202.203.129:1080
dort:jewnig@85.202.203.129:1080
dort:jewnig@85.202.203.129:1080
dort:jewnig@85.202.203.129:1080
dort:jewnig@85.202.203.129:1080
dort:jewnig@85.202.203.129:1080
dort:jewnig@85.202.203.129:1080
dort:jewnig@85.202.203.129:1080
dort:jewnig@85.202.203.129:1080
dort:jewnig@85.202.203.129:1080
dort:jewnig@85.202.203.129:1080
dort:jewnig@85.202.203.129:1080
dort:jewnig@85.202.203.129:1080
dort:jewnig@85.202.203.129:1080
dort:jewnig@85.202.203.129:1080
dort:jewnig@85.202.203.129:1080
dort:jewnig@85.202.203.129:1080
dort:jewnig@85.202.203.129:1080
dort:jewnig@85.202.203.129:1080
dort:jewnig@85.202.203.129:1080
dort:jewnig@85.202.203.129:1080
dort:jewnig@85.202.203.129:1080
dort:jewnig@85.202.203.129:1080
dort:jewnig@85.202.203.129:1080
dort:jewnig@85.202.203.129:1080
dort:jewnig@85.202.203.129:1080
dort:jewnig@85.202.203.129:1080
dort:jewnig@85.202.203.129:1080
dort:jewnig@85.202.203.129:1080
dort:jewnig@85.202.203.129:1080
dort:jewnig@85.202.203.129:1080
dort:jewnig@85.202.203.129:1080
dort:jewnig@85.202.203.129:1080
dort:jewnig@85.202.203.129:1080
dort:jewnig@85.202.203.129:1080
dort:jewnig@85.202.203.129:1080
dort:jewnig@85.202.203.129:1080
dort:jewnig@85.202.203.129:1080
dort:jewnig@85.202.203.129:1080
dort:jewnig@85.202.203.129:1080
dort:jewnig@85.202.203.129:1080
dort:jewnig@85.202.203.129:1080
dort:jewnig@85.202.203.129:1080
dort:jewnig@85.202.203.129:1080
dort:jewnig@85.202.203.129:1080
dort:jewnig@85.202.203.129:1080
dort:jewnig@85.202.203.129:1080
dort:jewnig@85.202.203.129:1080
dort:jewnig@85.202.203.129:1080
dort:jewnig@85.202.203.129:1080
dort:jewnig@85.202.203.129:1080